1 3 5 7 9 11 13 15 17 19
1 3 5 7 9 12 13 15 17 19
1 3 5 7 9 12 13 16 17 19
1 3 5 7 9 11 13 15 17 20
1 3 5 7 9 29 31 34 36 38
1 3 5 7 9 52 54 56 58 60 63
1 3 27 29 31 34 36 38 40 42 44
1 3 5 7 9 12 13 15 17 19 21
1 3 5 7 9 11 13 15 17 19 21
1 3 5 7 9 16 17 19 21 24 25
1 3 5 7 9 12 13 19 21 24 25
